﻿[
  {
      "_id":"c-05",
      "_parentId":"b-05",
      "_type":"component",
      "_component":"text",
      "_classes":"",
      "_layout":"full",
      "title":"개요",
      "displayTitle":"",
      "body":"회사 조직원이 각자 고유한 개성이 있는 것처럼, 비즈니스의 목표도 제각기 다양합니다. Facebook에서 광고를 진행하면 브랜드 인지도 증대하기, 고객과 대화 시작하기, 웹사이트에서 구매 유도하기 등 다양한 목표에 적합한 동영상 솔루션을 활용할 수 있습니다. 노출 위치와 광고 형식만 결정하면 모든 준비가 끝나기 때문에 아주 간편합니다.",
      "instruction":"",
      "_pageLevelProgress": {
          "_isEnabled": true
      }
  },
  {
      "_id":"c-10",
      "_parentId":"b-10",
      "_type":"component",
      "_component":"text",
      "_classes":"",
      "_layout":"right",
      "title":"",
      "displayTitle":"",
      "body":"동영상 소비가 기하급수적으로 늘어나고 있습니다. 2020년경에는 동영상이 모바일 데이터의 75%를 차지할 전망입니다.<sup>1</sup> 이러한 흐름에 따라 Facebook은 동영상 중심 전략을 채택하여 타겟, 퍼블리셔, 크리에이터, 광고주가 탁월한 동영상 광고를 제작할 수 있는 환경을 구축했습니다.<br><br>콘텐츠의 제작 및 소비, 그리고 발견되는 방식이 변화하면서, 광고주 여러분이 동영상을 통해 하루 종일 의미 있는 스토리를 전달하고 사람들과 연결할 수 있는 절호의 기회가 찾아왔습니다.<br><br>이번 기초 과정에서는 Facebook 동영상 광고의 기본적인 언어와 개념을 꼼꼼하게 살펴봅니다. 여러분의 상황에 가장 적합한 주제를 선택하여 집중할 수 있도록 과정 전반에 걸쳐 여러 참고 자료를 살펴보려고 합니다. 또한 좀 더 기술적인 내용을 알아볼 수 있는 링크도 준비되어 있습니다.<br><br>이 과정에서는 다음과 같은 내용을 다룹니다.<br><br><ul><li>플랫폼, 노출 위치, 형식 간의 차이점을 이해합니다.</li><li>동영상 광고를 만들 때 이용할 수 있는 다양한 크리에이티브 형식을 알아봅니다.</li><li>타겟에 대한 동영상 광고의 효과를 측정하는 방법을 알아봅니다.</li></ul>",
      "instruction":"",
      "_pageLevelProgress": {
          "_isEnabled": false
      }
  },
  {
      "_id":"c-11",
      "_parentId":"b-10",
      "_type":"component",
      "_component":"framed-video",
      "_classes":"",
      "_layout":"left",
      "title":"",
      "displayTitle":"",
      "body":"",
      "_videoPosition":"top",
      "_componentHeight":"612",
      "_videoPt":{"x":"0px","y":"0px"},
      "_showControls":true,
      "_mute":false,
      "instruction":"",
      "_items": [
          {
              "video":  "<video controls poster='course/en/images/01_introduction/waterford_lux_resort.png' id='vid' width='300px' controls='controls'><source src='course/en/video/01_introduction/waterford_lux_resort.mp4' type='video/mp4'></video>"
          }

      ]
  },
  {
      "_id":"c-20",
      "_parentId":"b-20",
      "_type":"component",
      "_component":"text",
      "_classes":"",
      "_layout":"full",
      "title":"",
      "displayTitle":"",
      "body":"<sup>1</sup>Cisco Visual Networking Index: Global Mobile Data Traffic Forecast Update, 2016~2021 백서, 2017년 3월",
      "instruction":"",
      "_pageLevelProgress": {
          "_isEnabled": false
      }
  },
  {
    "_id": "c-30",
    "_parentId": "b-30",
    "_type": "component",
    "_component": "co-jump",
    "_classes": "color-test",
    "_preLinkBody": "먼저 ",
    "_linkBody": "광고 노출 위치 이해하기",
    "_postLinkBody": " 과정부터 살펴보겠습니다.",
    "_link": "#/id/co-100",
    "_graphic": "adapt/css/assets/icon_nextPage.png",
    "_pageLevelProgress": {
        "_isEnabled": false
    }
  },
  {
      "_id":"c-35",
      "_parentId":"b-35",
      "_type":"component",
      "_component":"text",
      "_classes":"",
      "_layout":"full",
      "title":"",
      "displayTitle":"",
      "body":"동영상 광고는 Facebook 앱 패밀리에서 집행할 수 있습니다. 플랫폼별 노출 위치와 크리에이티브 형식에 따라 광고의 형태가 조금씩 달라집니다. 좀 더 자세히 살펴보겠습니다.",
      "instruction":"",
      "_pageLevelProgress": {
          "_isEnabled": false
      }
  },
  {
      "_id":"c-40",
      "_parentId":"b-40",
      "_type":"component",
      "_component":"graphic",
      "_classes":"",
      "_layout":"full",
      "title":"플랫폼, 노출 위치, 형식 사이의 관계",
      "displayTitle":"플랫폼, 노출 위치, 형식 사이의 관계",
      "body":"",
      "instruction":"",
      "_pageLevelProgress": {
        "_isEnabled": false
      },
      "_graphic": {
          "alt": "노출 위치 수정 스크린샷",
          "src": "course/en/images/02_understanding_where_your_adsappear/edit_placement_screenshot.png",
          "attribution":""
      }
  },
  {
      "_id":"c-45",
      "_parentId":"b-40",
      "_type":"component",
      "_component":"text",
      "_classes":"",
      "_layout":"full",
      "title":"",
      "displayTitle":"",
      "body":"<b>플랫폼</b>, <b>노출 위치</b>, <b>형식</b> 사이의 차이점을 이해하면 비즈니스 목적에 부합하는 효과적인 캠페인을 만드는 데 큰 도움이 됩니다.<br><br><ul><li><strong>플랫폼</strong>은 동영상 광고가 노출되는 앱 또는 서비스로, <strong>Facebook, Instagram</strong>, <strong>Audience Network</strong>를 예로 들 수 있습니다.</li></ul><ul><li><strong>노출 위치</strong>는 동영상 광고가 플랫폼 내에서 나타나는 위치를 뜻합니다. <strong>Instagram 피드</strong>에 동영상 광고를 노출하려는 경우를 살펴보겠습니다. <strong>Instagram</strong>은 '플랫폼'이고 <strong>피드</strong>는 플랫폼 내 '노출 위치'입니다.<i></i><i></i></li></ul><ul><li><strong>형식</strong>은 동영상 광고가 취하는 크리에이티브 양식입니다. 간단하게 말해서, 동영상 광고가 나타나는 형태라고 할 수 있습니다. <strong>단일 동영상</strong>, <strong>슬라이드</strong>, <strong>슬라이드쇼</strong>, <strong>컬렉션</strong>을 예로 들 수 있습니다.</li></ul><br>각 플랫폼에서 제공하는 노출 위치를 좀 더 자세히 알아보겠습니다.",
      "instruction":"",
      "_pageLevelProgress": {
          "_isEnabled": false
      }
  },
  {
      "_id":"c-60",
      "_parentId":"b-60",
      "_type":"component",
      "_component":"graphic",
      "_classes":"",
      "_layout":"full",
      "title":"Facebook",
      "displayTitle":"Facebook",
      "body":"<img src='course/en/images/02_understanding_where_your_adsappear/platforms_facebook_dropdown.png'/><br><br><strong>피드:</strong> 이 노출 위치에는 모바일 및 데스크톱 뉴스피드가 모두 포함됩니다. 여기에서 사람들은 가족, 친구 또는 비즈니스가 생성한 다양한 텍스트, 사진, 동영상을 발견하고 관련 콘텐츠에 관해 소통할 수 있습니다. 뉴스피드에는 Facebook에서 팔로우하고 있는 사람과 페이지 또는 그룹의 텍스트 상태 업데이트, 사진, 동영상, 링크, 앱 활동, 반응 등이 올라옵니다.<br><br><strong>동영상 팁:</strong> 뉴스피드에서 동영상 광고는 가로, 정사각형 또는 세로 형식으로 나타날 수 있지만, 사람들이 뉴스피드에서 동영상을 시청하는 방식에 맞게 세로 형식을 선택하는 것이 좋습니다.",
      "instruction":"",
      "_pageLevelProgress": {
        "_isEnabled": true
      },
      "_graphic": {
          "alt": "Facebook 뉴스피드의 광고 노출 위치를 강조 표시한 스크린샷",
          "src": "course/en/images/02_understanding_where_your_adsappear/facebook_newsfeed_adplacements_highlighted.png",
          "attribution":""
      }
  },
  {
      "_id":"c-70",
      "_parentId":"b-60",
      "_type":"component",
      "_component":"text",
      "_classes":"",
      "_layout":"full",
      "title":"인스트림 동영상",
      "displayTitle":"",
      "body":"<strong>인스트림 동영상:</strong> 인스트림 동영상 광고 노출 위치를 사용하면 Facebook에서 동영상을 시청하는 사람들에게 5~15초 길이의 미드롤 동영상 광고를 노출할 수 있습니다. 인스트림 동영상 광고는 TV 프로그램 도중에 나오는 광고 방송과 유사합니다. 즉, 광고가 끝나면 이전에 보고 있던 콘텐츠로 되돌아오게 됩니다.<br><br><strong>동영상 팁:</strong> 인스트림 동영상 광고는 세로 형식으로 업로드해도 정사각형 형식으로 재생되며, 사운드를 포함해야 합니다.<hr><strong>추천 동영상:</strong> 이 노출 위치를 활용하면 추천 동영상 플레이어에 동영상 광고를 게재하여 타겟에 도달할 수 있습니다. 이 동영상 광고는 뉴스피드와 마찬가지로 Facebook 사용자의 관심사에 따라 노출되는 광고가 달라집니다.",
      "instruction":"",
      "_pageLevelProgress": {
          "_isEnabled": false
      }
  },
  {
      "_id":"c-80",
      "_parentId":"b-70",
      "_type":"component",
      "_component":"graphic",
      "_classes":"",
      "_layout":"full",
      "title":"Instagram",
      "displayTitle":"Instagram",
      "body":"",
      "instruction":"",
      "_pageLevelProgress": {
        "_isEnabled": true
      },
      "_graphic": {
          "alt": "Instagram 플랫폼의 드롭다운 스크린샷",
          "src": "course/en/images/02_understanding_where_your_adsappear/platforms_instagram_dropdown.png",
          "attribution":""
      }
  },
  {
      "_id":"c-85",
      "_parentId":"b-80",
      "_type":"component",
      "_component":"text",
      "_classes":"",
      "_layout":"full",
      "title":"",
      "displayTitle":"",
      "body":"<strong>피드:</strong> Facebook 피드뿐만 아니라 Instagram 피드에도 동영상 광고를 게재할 수 있습니다. 사용자가 한 동영상 광고의 소리를 켜고 피드를 스크롤하면 탐색하는 내내 모든 동영상이 소리가 켜진 채로 자동 재생됩니다.",
      "instruction":"",
      "_pageLevelProgress": {
          "_isEnabled": false
      }
  },
  {
      "_id":"c-95",
      "_parentId":"b-90",
      "_type":"component",
      "_component":"text",
      "_classes":"",
      "_layout":"left",
      "title":"",
      "displayTitle":"",
      "body":"<strong>Instagram Stories:</strong>  Instagram Stories에서는 프로필에 올리는 사진 외에도 일상의 모든 순간을 공유할 수 있습니다. 또한 일정 시간이 지나면 사라지는 슬라이드쇼 형식으로 다양한 사진과 동영상을 공유할 수도 있습니다. 광고를 만들어 Instagram Stories에 게재할 수 있으며, 하나의 사진 또는 동영상(최대 15초)을 업로드하여 사람들의 스토리 중간중간에 나타나도록 할 수 있습니다. Instagram Stories 광고에는 형식에 대한 요건을 충족하는 9:16 세로 이미지 및 동영상만 사용할 수 있습니다.<br><br>Instagram Stories는 모바일과 데스크톱 모두에서 볼 수 있지만, 광고는 현재 모바일에서만 나타납니다.<br><br>Stories 광고는 어차피 시간이 지나면 사라질 텐데 왜 게재해야 하는지 궁금한 분도 있을 겁니다. 예를 들어, 가장 인기있는 제품에 대한 반짝 세일 광고를 진행한다고 생각해 보세요. Instagram Stories만한 대안이 없을 것입니다.<br><br>인테리어 디자인 업체인 Hutch가 Instagram Stories로 다양한 집 꾸미기 아이디어를 보여준 사례를 살펴보세요.",
      "instruction":"",
      "_pageLevelProgress": {
          "_isEnabled": false
      }
  },
  {
      "_id":"c-100",
      "_parentId":"b-90",
      "_type":"component",
      "_component":"framed-video",
      "_classes":"",
      "_layout":"right",
      "title":"",
      "displayTitle":"",
      "body":"",
      "_videoPosition":"top",
      "_componentHeight":"488",
      "_videoPt":{"x":"0px","y":"0px"},
      "_showControls":true,
      "_mute":false,
      "instruction":"",
      "_items": [
          {
              "video":  "<video controls poster='course/en/images/02_understanding_where_your_adsappear/hutch_insta_story_example_poster.png' id='vid' width='240px' controls='controls'><source src='course/en/video/02_understanding_where_your_adsappear/hutch_insta_story_example.mp4' type='video/mp4'></video>"
          }

      ]
  },
  {
      "_id":"c-120",
      "_parentId":"b-120",
      "_type":"component",
      "_component":"graphic",
      "_classes":"",
      "_layout":"full",
      "title":"Audience Network",
      "displayTitle":"Audience Network",
      "body":"",
      "instruction":"",
      "_pageLevelProgress": {
        "_isEnabled": true
      },
      "_graphic": {
          "alt": "Audience Network 플랫폼 드롭다운 메뉴 스크린샷",
          "src": "course/en/images/02_understanding_where_your_adsappear/platforms_audience_network_drowpdown.png",
          "attribution":""
      }
  },
  {
      "_id":"c-125",
      "_parentId":"b-120",
      "_type":"component",
      "_component":"text",
      "_classes":"",
      "_layout":"full",
      "title":"",
      "displayTitle":"",
      "body":"Audience Network는 각 광고가 가장 비용 효율적인 방법으로 비즈니스 목표를 달성하는 데 도움이 되도록 동일한 Facebook 타게팅, 측정 및 게재 방법을 사용합니다. Audience Network는 각 광고가 가장 비용 효율적인 방법으로 비즈니스 목표를 달성하는 데 도움이 되도록 동일한 Facebook 타게팅, 측정 및 게재 방법을 사용합니다.",
      "instruction":"",
      "_pageLevelProgress": {
          "_isEnabled": false
      }
  },
  {
      "_id":"c-130",
      "_parentId":"b-130",
      "_type":"component",
      "_component":"twoColumn",
      "_classes":"clearFix",
      "_layout":"full",
      "title":"네이티브, 배너 및 삽입 광고",
      "displayTitle":"",
      "body":"",
      "instruction":"",
      "fontSize":"4vmin",
      "lineHeight":"",
      "fontColor":"#ffffff",
      "leftColumnWidth": "35%",
      "rightColumnWidth": "65%",
      "marginTop": "90px",
      "imageLayout": "left",
      "text": "<b>네이티브, 배너 및 삽입 광고</b>: 네이티브, 배너, 삽입 광고는 Audience Network에서만 이용할 수 있습니다. 퍼블리셔는 앱에 가장 적합한 광고 유닛을 결정한 후 앱에서 나타나는 광고의 형태, 디자인 및 크기를 맞춤 설정할 수 있습니다.",
      "_graphic": {
          "alt": "iPhone에서 보이는 네이티브 모의 광고 스크린샷",
          "src": "course/en/images/02_understanding_where_your_adsappear/nativeads_mockup.jpg",
          "attribution":""
      },
      "imageHeading": "",
      "imageSubHeading": ""
  },
  {
      "_id":"c-140",
      "_parentId":"b-130",
      "_type":"component",
      "_component":"twoColumn",
      "_classes":"clearFix",
      "_layout":"full",
      "title":"",
      "displayTitle":"",
      "body":"",
      "instruction":"",
      "fontSize":"4vmin",
      "lineHeight":"",
      "fontColor":"#ffffff",
      "leftColumnWidth": "35%",
      "rightColumnWidth": "65%",
      "marginTop": "50px",
      "imageLayout": "right",
      "text": "퍼블리셔는 Audience Network의 배너 광고를 앱 곳곳에 배치한 후 사용자가 적절한 간격으로 앱 광고를 볼 수 있도록 새로 고침할 수 있습니다.",
      "_graphic": {
          "alt": "배너 광고 이미지 예시",
          "src": "course/en/images/02_understanding_where_your_adsappear/bannerad_example.jpg",
          "attribution":""
      },
      "imageHeading": "",
      "imageSubHeading": ""
  },
  {
      "_id":"c-150",
      "_parentId":"b-130",
      "_type":"component",
      "_component":"twoColumn",
      "_classes":"clearFix",
      "_layout":"full",
      "title":"",
      "displayTitle":"",
      "body":"",
      "instruction":"",
      "fontSize":"4vmin",
      "lineHeight":"",
      "fontColor":"#ffffff",
      "leftColumnWidth": "35%",
      "rightColumnWidth": "65%",
      "marginTop": "80px",
      "imageLayout": "left",
      "text": "삽입 광고는 효과적으로 사람들의 관심을 사로잡을 수 있는 전체 화면 광고입니다. 게임 도중 쉬어가는 부분이 있거나 앱 플로가 자연스럽게 중단되는 시점에 삽입 광고를 배치하는 것이 좋습니다.",
      "_graphic": {
          "alt": "삽입 광고 이미지 예시",
          "src": "course/en/images/02_understanding_where_your_adsappear/interstitialad_example.jpg",
          "attribution":""
      },
      "imageHeading": "",
      "imageSubHeading": ""
  },
  {
      "_id":"c-160",
      "_parentId":"b-160",
      "_type":"component",
      "_component":"text",
      "_classes":"",
      "_layout":"full",
      "title":"인스트림 동영상",
      "displayTitle":"",
      "body":"<strong>인스트림 동영상</strong>: Audience Network의 인스트림 동영상 노출 위치를 사용하면 사람들이 Facebook 이외의 웹사이트나 앱에서 동영상을 시청하는 중에 동영상 광고를 노출할 수 있습니다. Audience Network 퍼블리셔의 앱이나 웹사이트에서 사람들이 어떤 동영상을 시청하기로 선택하면 해당 동영상이 재생되기 전이나 재생되는 중에 동영상 광고가 노출됩니다. Audience Network 인스트림 동영상 노출 위치에 광고를 게재하려면 동영상 광고에 소리를 포함해야 하며, 길이가 5~30초(인스트림 동영상 노출 위치만 선택하는 경우) 또는 5~120초(자동 노출 위치 옵션을 사용하는 경우) 사이여야 합니다.",
      "instruction":"",
      "_pageLevelProgress": {
          "_isEnabled": false
      }
  },
  {
      "_id":"c-180",
      "_parentId":"b-180",
      "_type":"component",
      "_component":"twoColumn",
      "_classes":"clearFix",
      "_layout":"full",
      "title":"보상형 동영상",
      "displayTitle":"",
      "body":"",
      "instruction":"",
      "fontSize":"4vmin",
      "lineHeight":"",
      "fontColor":"#ffffff",
      "leftColumnWidth": "45%",
      "rightColumnWidth": "55%",
      "marginTop": "50px",
      "imageLayout": "left",
      "text": "<strong>보상형 동영상</strong>: 보상형 동영상 광고를 활용하면 사용자들이 15~30초 동영상 광고를 건너뛰지 않고 끝까지 시청할 경우 가치 있는 보상(예: 가상 화폐, 앱 내 아이템, 전용 콘텐츠)을 받을 수 있습니다.",
      "_graphic": {
          "alt": "보상형 동영상 애니메이션 GIF",
          "src": "course/en/images/02_understanding_where_your_adsappear/rewarded_video.gif",
          "attribution":""
      },
      "imageHeading": "",
      "imageSubHeading": ""
  },
  {
      "_id":"c-190",
      "_parentId":"b-180",
      "_type":"component",
      "_component":"text",
      "_classes":"",
      "_layout":"full",
      "title":"",
      "displayTitle":"",
      "body":"Audience Network의 기능을 자세히 알아보려면 이 주제에 대한 <a href='https://www.facebookblueprint.com/student/catalog/list?search=Audience%20Network' target='_blank'>Blueprint 과정</a>을 수강해보세요.",
      "instruction":"",
      "_pageLevelProgress": {
          "_isEnabled": false
      }
  },
  {
    "_id": "c-250",
    "_parentId": "b-250",
    "_type": "component",
    "_component": "co-jump",
    "_classes": "color-test",
    "_preLinkBody": "지금까지 동영상 광고의 노출 위치에 대해 알아보았습니다. 다음으로는 이용할 수 있는 동영상 광고 형식을 살펴보려고 합니다. 그럼",
    "_linkBody": "광고 형식",
    "_postLinkBody": " 과정으로 넘어가겠습니다.",
    "_link": "#/id/co-150",
    "_graphic": "adapt/css/assets/icon_nextPage.png",
    "_pageLevelProgress": {
        "_isEnabled": false
    }
  },
  {
      "_id":"c-260",
      "_parentId":"b-260",
      "_type":"component",
      "_component":"text",
      "_classes":"",
      "_layout":"full",
      "title":"",
      "displayTitle":"",
      "body":"이전 과정에서 네 가지 플랫폼의 특징과 각 플랫폼에서 제공되는 다양한 노출 위치를 알아보았습니다. 여기에서는 각 플랫폼 및 노출 위치에 게재할 수 있는 다양한 동영상 광고 형식에 대해 살펴보겠습니다. 단, 일부 광고 형식은 플랫폼이나 노출 위치에 따라 제한을 받을 수 있습니다.",
      "instruction":"",
      "_pageLevelProgress": {
          "_isEnabled": false
      }
  },
  {
      "_id":"c-270",
      "_parentId":"b-270",
      "_type":"component",
      "_component":"text",
      "_classes":"",
      "_layout":"full",
      "title":"동영상(피드/인스트림)",
      "displayTitle":"동영상(피드/인스트림)",
      "body":"",
      "instruction":"",
      "_pageLevelProgress": {
          "_isEnabled": true
      }
  },
  {
      "_id":"c-271",
      "_parentId":"b-270",
      "_type":"component",
      "_component":"text",
      "_classes":"",
      "_layout":"right",
      "title":"",
      "displayTitle":"",
      "body":"세로, 가로, 정사각형 비율의 동영상은 여러분께 매우 친숙할 것입니다(참고: 링크가 포함된 동영상 광고와 링크가 없는 동영상 광고는 서로 화면 비율이 다름). 요즘은 스마트폰 카메라, 크리에이티브 앱, 그리고 작은 아이디어만 있으면 동영상 광고를 손쉽게 만들 수 있습니다. 표준 동영상은 아래에서 살펴볼 다양한 형식의 기본적인 토대가 됩니다.<br><br>이미 알고 계시겠지만, 표준 동영상 광고는 Facebook, Audience Network, Instagram 모두에서 집행할 수 있습니다. 또한 동영상에 행동 유도(CTA) 버튼을 추가하여 지금 구매하기, 페이지 좋아요, 더 알아보기 등 특정 행동을 유도할 수 있습니다.",
      "instruction":"",
      "_pageLevelProgress": {
          "_isEnabled": false
      }
  },
  {
      "_id":"c-272",
      "_parentId":"b-270",
      "_type":"component",
      "_component":"framed-video",
      "_classes":"",
      "_layout":"left",
      "title":"",
      "displayTitle":"",
      "body":"",
      "_videoPosition":"top",
      "_componentHeight":"501",
      "_videoPt":{"x":"0px","y":"0px"},
      "_showControls":true,
      "_mute":false,
      "instruction":"",
      "_items": [
          {
              "video":  "<video controls poster='course/en/images/03_adformats/cheetos.png' id='vid' width='300px' controls='controls'><source src='course/en/video/03_adformats/cheetos.mp4' type='video/mp4'></video>"
          }

      ]
  },
  {
      "_id":"c-280",
      "_parentId":"b-280",
      "_type":"component",
      "_component":"graphic",
      "_classes":"",
      "_layout":"full",
      "title":"",
      "displayTitle":"",
      "body":"주목할 만한 표준 동영상 자산으로는 다음 두 가지가 있습니다.<br><br><ul><li><strong>GIF</strong>는 일정한 움직임이 반복되는 그래픽 이미지입니다.</li><li><strong>시네마그래프</strong>는 아래에 보이는 것처럼 일부만 반복적으로 짧게 움직이는 고정 이미지입니다.</li></ul>",
      "instruction":"",
      "_pageLevelProgress": {
        "_isEnabled": false
      },
      "_graphic": {
          "alt": "시네마그래프 예시 애니메이션 GIF",
          "src": "course/en/images/03_adformats/cinemagraph_example.gif",
          "attribution":""
      }
  },
  {
      "_id":"c-290",
      "_parentId":"b-290",
      "_type":"component",
      "_component":"twoColumn",
      "_classes":"clearFix",
      "_layout":"full",
      "title":"슬라이드",
      "displayTitle":"슬라이드",
      "body":"",
      "instruction":"",
      "fontSize":"4vmin",
      "lineHeight":"",
      "fontColor":"#ffffff",
      "leftColumnWidth": "45%",
      "rightColumnWidth": "55%",
      "marginTop": "50px",
      "imageLayout": "left",
      "text": "슬라이드 형식을 이용하면 하나의 광고 유닛에서 최대 10개의 동영상과 이미지 또는 이 둘을 조합해서 보여줄 수 있으며, 슬라이드마다 서로 다른 행동 유도 버튼을 배치할 수 있습니다. 하나의 광고에 크리에이티브를 배치할 공간이 많기 때문에 다양한 제품을 강조하거나 한 가지 제품에 대한 자세한 정보를 담을 수도 있고, 여러 슬라이드에 걸쳐 이어지는 브랜드 스토리를 전달할 수도 있습니다.<br><br>슬라이드 광고는 Facebook, Instagram, Audience Network에서 모두 이용할 수 있기 때문에 더욱 다양한 위치에서 원하는 행동 유도 버튼을 배치하여 더 많은 사람들에게 도달할 수 있습니다.",
      "_graphic": {
          "alt": "Kiterly 슬라이드 광고 예시 애니메이션 GIF",
          "src": "course/en/images/03_adformats/kiterly_carouselad_example.gif",
          "attribution":""
      },
      "imageHeading": "",
      "imageSubHeading": ""
  },
  {
      "_id":"c-300",
      "_parentId":"b-300",
      "_type":"component",
      "_component":"text",
      "_classes":"",
      "_layout":"full",
      "title":"",
      "displayTitle":"",
      "body":"<a href='https://fb.me/blueprint-carousel' target='_blank'>슬라이드 광고를 활용한 스토리텔링</a> 과정에서 자세히 알아보세요.",
      "instruction":"",
      "_pageLevelProgress": {
          "_isEnabled": false
      }
  },
  {
      "_id":"c-310",
      "_parentId":"b-310",
      "_type":"component",
      "_component":"text",
      "_classes":"",
      "_layout":"full",
      "title":"슬라이드쇼",
      "displayTitle":"슬라이드쇼",
      "body":"",
      "instruction":"",
      "_pageLevelProgress": {
          "_isEnabled": true
      }
  },
  {
      "_id":"c-311",
      "_parentId":"b-310",
      "_type":"component",
      "_component":"text",
      "_classes":"",
      "_layout":"right",
      "title":"",
      "displayTitle":"",
      "body":"슬라이드쇼 광고는 여러 장의 이미지나 기존 동영상을 활용해 슬라이드쇼를 제작하여, 제품이나 브랜드에 대한 호감도와 광고 예산의 효율을 높일 수 있는 광고 형식입니다. Facebook은 슬라이드쇼 오디오 및 텍스트 오버레이 등 광고를 손쉽게 만들고 수정할 수 있는 기능을 제공합니다. 슬라이드쇼는 일반 동영상보다 더 빠르게 로딩되고 더 적은 데이터를 소비하도록 최적화되었기 때문에 인터넷 연결 속도가 느린 지역에서도 볼 수 있습니다.",
      "instruction":"",
      "_pageLevelProgress": {
          "_isEnabled": false
      }
  },
  {
      "_id":"c-312",
      "_parentId":"b-310",
      "_type":"component",
      "_component":"framed-video",
      "_classes":"",
      "_layout":"left",
      "title":"",
      "displayTitle":"",
      "body":"",
      "_videoPosition":"top",
      "_componentHeight":"501",
      "_videoPt":{"x":"0px","y":"0px"},
      "_showControls":true,
      "_mute":false,
      "instruction":"",
      "_items": [
          {
              "video":  "<video controls poster='course/en/images/03_adformats/slide_show_ad_example_stance.png' id='vid' width='300px' controls='controls'><source src='course/en/video/03_adformats/slide_show_ad_example_stance.mp4' type='video/mp4'></video>"
          }

      ]
  },
  {
      "_id":"c-320",
      "_parentId":"b-320",
      "_type":"component",
      "_component":"text",
      "_classes":"",
      "_layout":"full",
      "title":"컬렉션",
      "displayTitle":"컬렉션",
      "body":"",
      "instruction":"",
      "_pageLevelProgress": {
          "_isEnabled": true
      }
  },
  {
      "_id":"c-321",
      "_parentId":"b-320",
      "_type":"component",
      "_component":"text",
      "_classes":"",
      "_layout":"right",
      "title":"",
      "displayTitle":"",
      "body":"컬렉션은 Facebook에서 사용 가능한 모바일 전용 형식으로, 뉴스피드에서 메인 동영상이나 이미지 아래에 네 개의 제품 이미지가 나타나는 것이 특징입니다.<br><br>전체 화면 상태에서 제품을 누르면 모바일 웹사이트나 앱의 제품 상세 정보 페이지로 연결됩니다. '더 보기'를 클릭하여 더 많은 제품을 살펴볼 수도 있습니다. 비즈니스의 모바일 웹사이트나 앱을 방문하는 사람들은 전환 가능성이 높은 잠재 고객입니다.",
      "instruction":"",
      "_pageLevelProgress": {
          "_isEnabled": false
      }
  },
  {
      "_id":"c-322",
      "_parentId":"b-320",
      "_type":"component",
      "_component":"framed-video",
      "_classes":"",
      "_layout":"left",
      "title":"",
      "displayTitle":"",
      "body":"",
      "_videoPosition":"top",
      "_componentHeight":"588",
      "_videoPt":{"x":"0px","y":"0px"},
      "_showControls":true,
      "_mute":false,
      "instruction":"",
      "_items": [
          {
              "video":  "<video controls poster='course/en/images/03_adformats/dollarshaveclub.png' id='vid' width='300px' controls='controls'><source src='course/en/video/03_adformats/dollarshaveclub.mp4' type='video/mp4'></video>"
          }

      ]
  },
  {
      "_id":"c-325",
      "_parentId":"b-325",
      "_type":"component",
      "_component":"text",
      "_classes":"",
      "_layout":"full",
      "title":"",
      "displayTitle":"",
      "body":"<a href='https://fb.me/blueprint-collection' target='_blank'>컬렉션 광고 형식으로 영감을 주고 제품 발견 유도</a> 과정에서 자세히 알아보세요.",
      "instruction":"",
      "_pageLevelProgress": {
          "_isEnabled": false
      }
  },
  {
      "_id":"c-330",
      "_parentId":"b-330",
      "_type":"component",
      "_component":"text",
      "_classes":"",
      "_layout":"full",
      "title":"캔버스",
      "displayTitle":"캔버스",
      "body":"",
      "instruction":"",
      "_pageLevelProgress": {
          "_isEnabled": true
      }
  },
  {
      "_id":"c-331",
      "_parentId":"b-330",
      "_type":"component",
      "_component":"text",
      "_classes":"",
      "_layout":"right",
      "title":"",
      "displayTitle":"",
      "body":"캔버스 광고는 사람들이 클릭했을 때 흥미를 불러일으키고 행동을 유도할 수 있는 다양한 요소를 포함합니다. 모바일에서 전체 화면으로 표시되며 모든 광고 형식에서 이용할 수 있습니다. 모바일 사용자는 Facebook과 Instagram에서 화면을 밀고, 기울이고, 확대하고 축소하며 여러 흥미로운 요소들을 둘러볼 수 있습니다.<br><br>캔버스를 이용하면 단일 광고 유닛에서 동영상, 360도 콘텐츠, 행동 유도 버튼을 조합하여 메시지나 브랜드 스토리를 전달할 수 있습니다. 빠르게 로딩되며 쉽게 제작할 수 있다는 장점도 있습니다.",
      "instruction":"",
      "_pageLevelProgress": {
          "_isEnabled": false
      }
  },
  {
      "_id":"c-332",
      "_parentId":"b-330",
      "_type":"component",
      "_component":"framed-video",
      "_classes":"",
      "_layout":"left",
      "title":"",
      "displayTitle":"",
      "body":"",
      "_videoPosition":"top",
      "_componentHeight":"603",
      "_videoPt":{"x":"0px","y":"0px"},
      "_showControls":true,
      "_mute":false,
      "instruction":"",
      "_items": [
          {
              "video":  "<video controls poster='course/en/images/03_adformats/seattle_sounders.png' id='vid' width='300px' controls='controls'><source src='course/en/video/03_adformats/seattle_sounders.mp4'></video>"
          }

      ]
  },
  {
      "_id":"c-340",
      "_parentId":"b-340",
      "_type":"component",
      "_component":"text",
      "_classes":"",
      "_layout":"full",
      "title":"",
      "displayTitle":"",
      "body":"<a href='https://fb.me/blueprint-fullscreencanvas' target='_blank'>전체 화면 캔버스 환경으로 타겟의 참여 유도</a> 과정에서 자세히 알아보세요.",
      "instruction":"",
      "_pageLevelProgress": {
          "_isEnabled": false
      }
  },
  {
      "_id":"c-350",
      "_parentId":"b-350",
      "_type":"component",
      "_component":"text",
      "_classes":"",
      "_layout":"full",
      "title":"기타 크리에이티브 형식",
      "displayTitle":"기타 크리에이티브 형식",
      "body":"",
      "instruction":"",
      "_pageLevelProgress": {
          "_isEnabled": true
      }
  },
  {
      "_id":"c-360",
      "_parentId":"b-360",
      "_type":"component",
      "_component":"text",
      "_classes":"",
      "_layout":"left",
      "title":"",
      "displayTitle":"",
      "body":"<h2>Facebook Live</h2><br>Facebook Live는 라이브 방송 중과 라이브 방송 후에 기존 팔로워의 참여를 유도하고 신규 팔로워를 끌어모을 수 있는 흥미로운 형식입니다. 참여 중인 이벤트를 실시간으로 공유하고, 실시간 Q&amp;A 세션을 열고, 방송에 대한 실시간 반응을 살펴볼 수 있습니다. 팔로워들은 방송 시작을 알리는 알림을 수신하기 때문에 방송을 놓치지 않고 실시간으로 시청할 수 있습니다.<br><br>초콜릿 브랜드 Hershey’s는 Facebook Live를 사용하여 새로운 초코바 Cookie Layer Crunch를 홍보했습니다. 이 이벤트는 뉴욕 타임스퀘어에 있는 Hershey’s Chocolate World 매장에서 실시간으로 중계되었습니다.",
      "instruction":"",
      "_pageLevelProgress": {
          "_isEnabled": false
      }
  },
  {
      "_id":"c-361",
      "_parentId":"b-360",
      "_type":"component",
      "_component":"framed-video",
      "_classes":"",
      "_layout":"right",
      "title":"",
      "displayTitle":"",
      "body":"",
      "_videoPosition":"top",
      "_componentHeight":"603",
      "_videoPt":{"x":"0px","y":"0px"},
      "_showControls":true,
      "_mute":true,
      "instruction":"",
      "_items": [
          {
              "video":  "<video controls poster='course/en/images/03_adformats/hersheys_ad_video_comp.png' id='vid' width='300px' controls='controls'><source src='course/en/video/03_adformats/hersheys_ad_video_comp.mp4'></video>"
          }

      ]
  },
  {
      "_id":"c-380",
      "_parentId":"b-380",
      "_type":"component",
      "_component":"media",
      "_classes":"",
      "_layout":"full",
      "title":"",
      "displayTitle": "",
      "body": "<h2>Facebook 360</h2><br>Facebook 360을 이용하면 몰입도 높은 방식으로 스토리, 장소, 경험을 전달하고 공유할 수 있습니다. 360도 콘텐츠는 Facebook 동영상을 만들 때와 동일한 방법으로 만들 수 있습니다. 동영상이 재생되는 동안 기기를 돌리거나 동영상 화면을 손가락으로 드래그하여 모든 각도로 영상을 감상할 수 있습니다. 여러분의 기기를 사용하여 실시간으로 사용자와 함께 하이킹을 떠나거나 탐험하고 싶은 장소로 데려가서 브랜드에 대한 관심을 불러일으킬 수 있습니다.<i></i><i></i><br><br>Facebook 360 콘텐츠는 Facebook 뉴스피드에 공유 가능하며, 대부분의 스마트폰과 데스크톱에서 볼 수 있습니다.",
      "instruction": "",
      "_setCompletionOn":"inview",
      "_useClosedCaptions":true,
      "_startLanguage":"ko",
      "_media": {
          "mp4": "course/en/video/03_adformats/get_started360.mp4",
          "ogv": "",
          "poster": "course/en/video/03_adformats/360_video_poster.png",
          "cc": [
              {
                  "srclang": "ko",
                  "src": "course/en/video/get_started360_mp4_20171113T0932_eng.ko_KR.srt"
              }
          ]
      },
      "_transcript": {
          "_setCompletionOnView":false,
          "_inlineTranscript": false,
          "_externalTranscript": false,
          "inlineTranscriptButton": "동영상 텍스트",
          "inlineTranscriptCloseButton": "동영상 텍스트 닫기",
          "inlineTranscriptBody": "동영상 텍스트 본문은 여기에 배치해야 합니다.",
          "transcriptLinkButton": "동영상 텍스트",
          "transcriptLink": "assets/transcript.pdf"
      },
      "_playerOptions": {
          "poster": "",
          "showPosterWhenEnded": false,
          "defaultVideoWidth": 480,
          "defaultVideoHeight": 270,
          "videoWidth": -1,
          "videoHeight": -1,
          "defaultAudioWidth": 400,
          "defaultAudioHeight": 30,
          "defaultSeekBackwardInterval": "(media.duration * 0.05)",
          "defaultSeekForwardInterval": "(media.duration * 0.05)",
          "audioWidth": -1,
          "audioHeight": -1,
          "startVolume": 0.8,
          "loop": false,
          "autoRewind": true,
          "enableAutosize": true,
          "alwaysShowHours": false,
          "showTimecodeFrameCount": false,
          "framesPerSecond": 25,
          "autosizeProgress" : true,
          "alwaysShowControls": false,
          "hideVideoControlsOnLoad": false,
          "clickToPlayPause": true,
          "iPadUseNativeControls": false,
          "iPhoneUseNativeControls": false,
          "AndroidUseNativeControls": false,
          "features": ["playpause","current","progress","duration","tracks","volume","fullscreen"],
          "isVideo": true,
          "enableKeyboard": true,
          "pauseOtherPlayers": true,
          "startLanguage": "ko",
          "tracksText": "mejs.i18n.t('Captions/Subtitles')",
          "hideCaptionsButtonWhenEmpty": true,
          "toggleCaptionsButtonWhenOnlyOne": false,
          "slidesSelector": ""
      }
  },
  {
      "_id":"c-390",
      "_parentId":"b-380",
      "_type":"component",
      "_component":"text",
      "_classes":"",
      "_layout":"full",
      "title":"",
      "displayTitle":"",
      "body":"<a href='https://fb.me/blueprint-facebook360' target='_blank'>Facebook 360을 통한 몰입도 높은 스토리텔링</a> 과정에서 자세히 알아보세요.",
      "instruction":"",
      "_pageLevelProgress": {
          "_isEnabled": false
      }
  },
  {
    "_id": "c-400",
    "_parentId": "b-400",
    "_type": "component",
    "_component": "co-jump",
    "_classes": "color-test",
    "_preLinkBody": "다음으로 ",
    "_linkBody": "동영상 자산의 사양 및 상세 정보",
    "_postLinkBody": "를 알아보겠습니다.",
    "_link": "#/id/co-200",
    "_graphic": "adapt/css/assets/icon_nextPage.png",
    "_pageLevelProgress": {
        "_isEnabled": false
    }
  },
  {
      "_id":"c-405",
      "_parentId":"b-405",
      "_type":"component",
      "_component":"text",
      "_classes":"",
      "_layout":"full",
      "title":"",
      "displayTitle":"",
      "body":"8mm 비디오 테이프, 카세트, CD, 포토 CD를 기억하시나요? 예전에는 음원과 동영상을 재생할 때 이런 형식을 빌렸습니다. 이번 과정에서 '동영상 자산'이라 함은 Facebook의 노출 위치와 형식의 요건을 충족하는 동영상 유형을 의미합니다. 동영상 자산이 무엇이며, 동영상 광고를 만들 때 유념해야 할 사항이 무엇인지 알아보겠습니다.",
      "instruction":"",
      "_pageLevelProgress": {
          "_isEnabled": false
      }
  },
  {
      "_id":"c-410",
      "_parentId":"b-410",
      "_type":"component",
      "_component":"text",
      "_classes":"",
      "_layout":"full",
      "title":"동영상 자산 유형",
      "displayTitle":"동영상 자산 유형",
      "body":"Facebook 광고에서는 <strong>MP4</strong> 또는 <strong>MOV</strong> 형식을 사용하도록 추천하고 있습니다. 보유한 동영상이 이러한 형식이 아닌 경우, <a href='https://www.facebook.com/help/218673814818907?hc_location=ufi' target='_blank'>여기</a>를 클릭하여 어떤 형식이 허용되는지 확인하세요.",
      "instruction":"",
      "_pageLevelProgress": {
          "_isEnabled": true
      }
  },
  {
      "_id":"c-420",
      "_parentId":"b-420",
      "_type":"component",
      "_component":"text",
      "_classes":"",
      "_layout":"full",
      "title":"동영상 길이",
      "displayTitle":"동영상 길이",
      "body":"일반적으로 길이가 15초 이하인 동영상은 플랫폼에서 메시지를 온전히 전달할 수 있으며 모바일 환경에서도 매우 효과적입니다.<i></i><br><br>동영상 길이는 짧게는 5초에서 길게는 120분까지 허용됩니다.<br><br>슬라이드쇼를 만드는 경우 이미지가 전환되는 시간 간격을 설정할 수 있으며, 보통 3~7개의 이미지를 사용하는 것이 좋습니다.",
      "instruction":"",
      "_pageLevelProgress": {
          "_isEnabled": true
      }
  },
  {
      "_id":"c-430",
      "_parentId":"b-430",
      "_type":"component",
      "_component":"text",
      "_classes":"",
      "_layout":"full",
      "title":"화면 비율 및 권장 비율",
      "displayTitle":"화면 비율 및 권장 비율",
      "body":"한 번에 쉽게 이해하실 수 있도록 간단한 이미지를 준비했습니다. 모바일 기기의 이미지에 적용되는 다양한 화면 비율을 살펴보세요.<div style='width:100%'><img src='course/en/images/04_video_assets_specifications_and_details/phone_size_ratios.png' alt=\"모바일 화면 비율 이미지\" style='float:left; width:100%; display:block'><div style='float:left; width:18%; text-align:center; font-size: 1.3vmin; margin: 0 1% 0 1%; font-weight:bold'>16:9<br />전체 화면(가로)</div><!-- end textArea1 --><div style='float:left; width:10%; text-align:center; font-size: 1.3vmin; margin: 0 1% 0 1%; font-weight:bold'>1:2<br />뉴스피드</div><!-- end textArea2 --><div style='float:left; width:19%; text-align:center; font-size: 1.3vmin; margin: 0 1% 0 1%; font-weight:bold'>1:1<br />정사각형</div><!-- end textArea3 --><div style='float:left; width:9%; text-align:center; font-size: 1.3vmin; margin: 0 1% 0 1%; font-weight:bold'>4:5<br />세로<br />(Instagram, Facebook)</div><!-- end textArea4 --><div style='float:left; width:19%; text-align:center; font-size: 1.3vmin; margin: 0 1% 0 1%; font-weight:bold'>2:3<br />세로<br />(Facebook만)</div><!-- end textArea5 --><div style='float:left; width:10%; text-align:center; font-size: 1.3vmin; margin: 0 1% 0 1%; font-weight:bold'>9:16<br />전체 화면(세로)</div><!-- end textArea6 --></div><!-- end imageText wrapper -->",
      "instruction":"",
      "_pageLevelProgress": {
          "_isEnabled": true
      }
  },
  {
      "_id":"c-440",
      "_parentId":"b-440",
      "_type":"component",
      "_component":"text",
      "_classes":"",
      "_layout":"full",
      "title":"",
      "displayTitle":"",
      "body":"<strong>참고:</strong> 동영상 노출 위치, 화면 비율, 길이에 대한 자세한 정보는 <a href='https://scontent-sea1-1.xx.fbcdn.net/v/t39.2365-6/20748461_1940877686194049_3269076913825513472_n.pdf?_nc_log=1&oh=4fda16824079fe4a7aa03c14bcddc42c&oe=5A19CEBF' target='_blank'>동영상 요구 사항 차트</a>를 참조하세요.",
      "instruction":"",
      "_pageLevelProgress": {
          "_isEnabled": false
      }
  },
  {
    "_id":"c-450",
    "_parentId":"b-450",
    "_type":"component",
    "_component":"accordion",
    "_classes":"",
    "_layout":"full",
    "title": "적절한 화면 비율 선정",
    "displayTitle": "적절한 화면 비율 선정",
    "body": "여러분이 전달하려는 스토리를 어떻게 시각적으로 풀어낼지 구상해보세요. 이때 고려해야 할 플랫폼별 동영상 사양과 각각의 정의를 알아보겠습니다. 하나씩 클릭하여 설명을 확인하세요.",
    "instruction": "",
    "_items": [
      {
        "title": "<strong>모바일 화면 비율</strong>",
        "body": "모바일에 최적화된 동영상을 제작하세요. 가능한 한 세로 방향 동영상을 활용하여 효과를 극대화하세요.",
        "_graphic": {
          "src": "",
          "alt": ""
        }
      },
      {
        "title": "<strong>Facebook</strong>",
        "body": "Facebook에서 링크 없이 동영상 광고를 제작하는 경우 세로 방향(9:16) 전체 화면을 권장하고 있습니다. 9:16 화면 비율을 사용하면 동영상은 Facebook의 모바일 뉴스피드 내에서는 2:3 비율로 나타나므로, 동영상의 핵심 요소가 2:3 화면 비율 내에 포함되어 있어야 합니다. 하지만 링크가 포함된 동영상 광고를 만들 경우 광고가 가로 방향 전체 화면으로 나타나며, 세로 방향 유닛에서는 4:5 비율로 나타나 콘텐츠 일부가 가려질 수 있습니다.<br><br>스트리밍 동영상 광고를 만들 경우 1:1(정사각형) 또는 16:9(가로) 화면 비율의 크리에이티브를 사용하는 것이 좋습니다. 360도 동영상은 1:2 화면 비율로 표시되지만, 클릭하면 전체 화면으로 확장됩니다. 크리에이티브 허브를 사용하여 광고가 어떻게 나타날지 확인하세요.",
        "_graphic": {
          "src": "",
          "alt": ""
        }
      },
      {
        "title": "<strong>Instagram</strong>",
        "body": "Instagram은 모든 목표의 모든 피드 동영상에 대해 1.9:1에서 4:5 사이의 화면 비율을 지원합니다. Instagram Stories에서는 동영상이 세로가 긴 전체 화면(9:16) 형식으로만 표시됩니다.",
        "_graphic": {
          "src": "",
          "alt": ""
        }
      },
      {
        "title": "<strong>Facebook과 Instagram</strong>",
        "body": "Facebook과 Instagram을 기준으로 동영상 캠페인의 노출 위치를 최적화하려면 4:5 화면 비율로 동영상을 제작하는 것이 좋습니다.",
        "_graphic": {
          "src": "",
          "alt": ""
        }
      },
      {
        "title": "<strong>Audience Network</strong>",
        "body": "Audience Network의 인스트림 노출 위치에서는 동영상 조회 목표에 1:1 및 가로 방향 전체 화면 비율(16:9)이 지원됩니다.",
        "_graphic": {
          "src": "",
          "alt": ""
        }
      }
    ]
  },
  {
      "_id":"c-460",
      "_parentId":"b-460",
      "_type":"component",
      "_component":"text",
      "_classes":"",
      "_layout":"full",
      "title":"소리 없이도 이해할 수 있는 광고",
      "displayTitle":"소리 없이도 이해할 수 있는 광고",
      "body":"",
      "instruction":"",
      "_pageLevelProgress": {
          "_isEnabled": true
      }
  },
  {
      "_id":"c-461",
      "_parentId":"b-460",
      "_type":"component",
      "_component":"text",
      "_classes":"",
      "_layout":"right",
      "title":"",
      "displayTitle":"",
      "body":"많은 사람들은 직장이나 공공 장소에서 소리를 끈 상태로 모바일 기기를 사용합니다. 캡션과 텍스트 오버레이를 설정하여 소리 없이도 동영상의 메시지를 이해할 수 있도록 하되, 소리를 켰을 때 더욱 몰입도 높은 경험을 제공할 수 있도록 동영상에 소리를 포함하세요.<br><br>Facebook의 자체 조사에 따르면 자막이 있는 동영상 광고의 재생 시간이 12% 더 긴 것으로 나타났습니다.<sup>1</sup><br><br>따라서 시청자가 소리를 켠 상태와 끈 상태로 시청할 경우 모두에 대비해야 합니다.<ul><li>소리 없이도 메시지를 전달할 수 있도록 이미지와 콘텐츠를 적절히 활용하세요.</li><li>자막을 추가하여 메시지 전달력을 높이세요.</li><li>동영상에 텍스트 오버레이를 추가하세요.</li></ul>",
      "instruction":"",
      "_pageLevelProgress": {
          "_isEnabled": false
      }
  },
  {
      "_id":"c-462",
      "_parentId":"b-460",
      "_type":"component",
      "_component":"framed-video",
      "_classes":"",
      "_layout":"left",
      "title":"",
      "displayTitle":"",
      "body":"",
      "_videoPosition":"top",
      "_componentHeight":"597",
      "_videoPt":{"x":"0px","y":"0px"},
      "_showControls":true,
      "_mute":false,
      "instruction":"",
      "_items": [
          {
              "video":  "<video controls poster='course/en/images/04_video_assets_specifications_and_details/gaia.png' id='vid' width='300px' controls='controls'><source src='course/en/video/04_video_assets_specifications_and_details/gaia.mp4'></video>"
          }

      ]
  },
  {
      "_id":"c-470",
      "_parentId":"b-465",
      "_type":"component",
      "_component":"text",
      "_classes":"",
      "_layout":"full",
      "title":"",
      "displayTitle":"",
      "body":"<a href='https://scontent-sea1-1.xx.fbcdn.net/v/t39.2365-6/20748461_1940877686194049_3269076913825513472_n.pdf?_nc_log=1&oh=4fda16824079fe4a7aa03c14bcddc42c&oe=5A19CEBF' target='_blank'>이 가이드</a>에서는 Facebook 앱 패밀리의 동영상 요구 사항을 전반적으로 살펴볼 수 있습니다. <a href='https://fb.me/creative-considerations-video' target='_blank'>모바일 동영상으로 광고 성과 개선하기</a> Blueprint 과정에서도 자세한 내용을 알아보세요.<hr><sup>1</sup>1분기 Facebook 수익 보고, 2016년 4월",
      "instruction":"",
      "_pageLevelProgress": {
          "_isEnabled": false
      }
  },
  {
    "_id": "c-480",
    "_parentId": "b-480",
    "_type": "component",
    "_component": "co-jump",
    "_classes": "color-test",
    "_preLinkBody": "다음으로 ",
    "_linkBody": "지표",
    "_postLinkBody": "에 대해 살펴보겠습니다. 지표를 이용하면 동영상 광고가 사람들에게 미치는 영향을 확인할 수 있습니다.",
    "_link": "#/id/co-250",
    "_graphic": "adapt/css/assets/icon_nextPage.png",
    "_pageLevelProgress": {
        "_isEnabled": false
    }
  },
  {
      "_id":"c-490",
      "_parentId":"b-490",
      "_type":"component",
      "_component":"text",
      "_classes":"",
      "_layout":"full",
      "title":"",
      "displayTitle":"",
      "body":"지표는 Facebook, Instagram, Audience Network에 게재된 동영상 광고의 효과를 측정한 결과입니다. 광고 관리자의 광고 성과 보고서에서 동영상을 조회한 사람 수, 동영상을 조회한 시간, 동영상 내 행동 유도 버튼을 보고 행동을 취했는지 여부 등을 확인할 수 있습니다. 이러한 지표를 지속적으로 추적하면 타겟, 제품 판매, 도달 관련 정보를 상세히 파악할 수 있습니다.",
      "instruction":"",
      "_pageLevelProgress": {
          "_isEnabled": false
      }
  },
  {
      "_id":"c-500",
      "_parentId":"b-500",
      "_type":"component",
      "_component":"graphic",
      "_classes":"",
      "_layout":"full",
      "title":"광고 성과 보고서",
      "displayTitle":"광고 성과 보고서",
      "body":"광고 관리자에서 동영상 지표를 확인하려면 <strong>열</strong>을 선택한 후 <strong>동영상 참여</strong>를 선택하세요.",
      "instruction":"",
      "_pageLevelProgress": {
        "_isEnabled": true
      },
      "_graphic": {
          "alt": "광고 관리자의 동영상 지표 스크린샷",
          "src": "course/en/images/05_metrics/adsmanager_video_metrics.png",
          "attribution":""
      }
  },
  {
      "_id":"c-520",
      "_parentId":"b-520",
      "_type":"component",
      "_component":"content-accordion",
      "_classes":"",
      "_layout":"full",
      "title": "지표",
      "displayTitle": "",
      "body": "각 지표가 무엇을 의미하는지 살펴보겠습니다.",
      "instruction": "",
      "_setCompletionOn":"inview",
      "_items": [
        {
          "alt": "동영상 10초 이상 조회",
          "title": "동영상 10초 이상 조회",
          "body": "동영상을 총 10초 이상 조회하거나 전체 길이의 97%를 조회 완료한 횟수(먼저 발생한 시점 기준)입니다."
        },
        {
          "alt": "동영상 10초 이상 조회당 비용",
          "title": "동영상 10초 이상 조회당 비용",
          "body": "동영상 10초 이상 조회당 평균 비용입니다. 이 지표는 총 지출 금액을 10초 이상 동영상 조회수로 나누어서 계산합니다."
        },
        {
          "alt": "동영상 3초 이상 조회",
          "title": "동영상 3초 이상 조회",
          "body": "동영상을 총 3초 이상 조회하거나 전체 길이의 97% 지점을 조회한 횟수(먼저 발생한 시점 기준)입니다."
        },
        {
          "alt": "동영상 3초 이상 조회당 비용",
          "title": "동영상 3초 이상 조회당 비용",
          "body": "동영상 3초 이상 조회당 평균 비용입니다. 이 지표는 총 지출 금액을 3초 이상 동영상 조회수로 나누어서 계산합니다."
        },
        {
          "alt": "도달",
          "title": "도달",
          "body": "광고를 본 사람 수입니다."
        },
        {
          "alt": "지출 금액",
          "title": "지출 금액",
          "body": "설정한 기간 동안 동영상 캠페인에 지출한 총 금액입니다. 이 지표는 조회하는 기간에 따라 다릅니다."
        },
        {
            "alt": "동영상 조회",
            "title": "동영상 조회",
            "body": "<strong>동영상 25% 조회:</strong><br>동영상에서 전체 길이의 25% 지점을 조회한 횟수(해당 지점까지 건너뛴 조회수 포함)입니다.<br><br><strong>동영상 50% 조회:</strong><br>동영상에서 전체 길이의 50% 지점을 조회한 횟수(해당 지점까지 건너뛴 조회수 포함)입니다.<br><br><strong>동영상 75% 조회:</strong><br>동영상에서 전체 길이의 75% 지점을 조회한 횟수(해당 지점까지 건너뛴 조회수 포함)입니다.<br><br><strong>동영상 95% 조회:</strong><br>동영상에서 전체 길이의 95% 지점을 조회한 횟수(해당 지점까지 건너뛴 조회수 포함)입니다.<br><br><strong>동영상 100% 조회:</strong><br>동영상에서 전체 길이의 100% 지점을 조회한 횟수(해당 지점까지 건너뛴 조회수 포함)입니다.<br><br><strong>동영상 조회 비율:</strong><br>사람들이 조회한 동영상의 평균 비율입니다. 이 지표는 조회된 모든 동영상의 평균 재생 비율로 계산됩니다.<br><br><strong>동영상 평균 조회 시간</strong>:<br>동영상이 조회된 평균 시간입니다. 동영상의 총 조회 시간을 다시 보기를 포함한 총 동영상 재생 횟수로 나누어 계산합니다."
        }
      ]
  },
  {
      "_id":"c-550",
      "_parentId":"b-530",
      "_type":"component",
      "_component":"text",
      "_classes":"",
      "_layout":"full",
      "title":"슬라이드 및 슬라이드쇼에 대한 지표",
      "displayTitle":"슬라이드 및 슬라이드쇼에 대한 지표",
      "body":"<b>슬라이드</b>: 동영상 광고 타일의 구체적인 성과를 확인할 수 있으며 기타 동영상 지표에 관하여 집계된 결과도 볼 수 있습니다.<br><br><b>슬라이드쇼</b>: 슬라이드쇼 형식을 사용하는 경우 동영상과 동일한 지표를 확인할 수 있습니다(위 설명 참조).",
      "instruction":"",
      "_pageLevelProgress": {
          "_isEnabled": true
      }
  },
  {
      "_id":"c-560",
      "_parentId":"b-540",
      "_type":"component",
      "_component":"graphic",
      "_classes":"",
      "_layout":"full",
      "title":"소리 지표",
      "displayTitle":"소리 지표",
      "body":"<strong>사운드 끄기/켜기:</strong> 앞서 살펴봤듯이 많은 사람들은 직장이나 공공장소 등에서 동영상을 시청합니다. 가장 좋은 방법은 소리 없이도 이해할 수 있도록 광고를 디자인하는 것입니다. 이를 위해 자막, 텍스트, 로고 등을 사용할 수 있지만, 소리를 켰을 때 더욱 즐겁고 흥미로운 경험을 할 수 있도록 사운드 파일을 포함하는 것이 좋습니다.<br><br>Facebook은 동영상 광고가 소리를 켠 상태 또는 끈 상태에서 시청되는 각 경우에 대해 파악하는 것이 얼마나 중요한지 잘 알고 있습니다. 이를 위해 '광고 인사이트'에서 이러한 지표를 보고받을 수 있는 기능을 제공합니다.<br><br>'동영상 소리' 지표는 소리를 켠 상태와 끈 상태 각각에서 동영상 광고가 조회된 횟수를 비교하여 자세히 보여줍니다. 이 지표는 모든 지표의 '분석 데이터'에서 확인할 수 있지만, 열 맞춤 설정 옵션에는 포함되지 않습니다.",
      "instruction":"",
      "_pageLevelProgress": {
        "_isEnabled": true
      },
      "_graphic": {
          "alt": "분석 데이터 드롭다운 메뉴 스크린샷",
          "src": "course/en/images/05_metrics/breakdown_dropdown.png",
          "attribution":""
      }
  },
  {
      "_id":"c-565",
      "_parentId":"b-550",
      "_type":"component",
      "_component":"text",
      "_classes":"",
      "_layout":"full",
      "title":"",
      "displayTitle":"",
      "body":"보고서 정보에 대한 구체적인 정보는 <a href='https://www.facebook.com/facebookmedia/best-practices/video-metrics' target='_blank'>Facebook 동영상 광고의 성과 이해하기</a> 및 <a href='https://www.facebook.com/business/help/1792720544284355?helpref=faq_content' target='_blank'>동영상 광고 지표 정보</a> 도움말 항목을 참조하세요.",
      "instruction":"",
      "_pageLevelProgress": {
          "_isEnabled": false
      }
  },
  {
    "_id": "c-570",
    "_parentId": "b-555",
    "_type": "component",
    "_component": "co-jump",
    "_classes": "color-test",
    "_preLinkBody": "마지막으로 ",
    "_linkBody": "동영상의 기본 개념과 오해",
    "_postLinkBody": " 과정을 살펴보겠습니다.",
    "_link": "#/id/co-300",
    "_graphic": "adapt/css/assets/icon_nextPage.png",
    "_pageLevelProgress": {
        "_isEnabled": false
    }
  },
  {
      "_id":"c-580",
      "_parentId":"b-560",
      "_type":"component",
      "_component":"text",
      "_classes":"",
      "_layout":"full",
      "title":"",
      "displayTitle":"",
      "body":"이 과정에서 등장하는 많은 용어와 개념이 비슷한 부분이 많아서, 불필요한 오해를 불러일으킬 수 있습니다. 여기에서는 각각의 차이점을 명확히 설명하고 몇 가지 잘못된 오해를 짚고 넘어가겠습니다.",
      "instruction":"",
      "_pageLevelProgress": {
          "_isEnabled": false
      }
  },
  {
      "_id":"c-590",
      "_parentId":"b-570",
      "_type":"component",
      "_component":"text",
      "_classes":"",
      "_layout":"full",
      "title":"동영상 관련 개념",
      "displayTitle":"동영상 관련 개념",
      "body":"<h2>노출과 재생</h2><br><strong>노출</strong>은 동영상 광고가 사용자의 화면에서 조회 가능한 영역에 처음 나타날 때 집계됩니다. 즉, 광고가 데스크톱 브라우저 또는 모바일 앱 화면에 나타나는 순간 광고가 '노출되었다'라고 할 수 있습니다. 이 정의는 모든 형식과 노출 위치에서 동일하게 적용됩니다.<br><br>반면, <strong>재생</strong>은 동영상 광고가 재생되기 시작하면 집계됩니다. 재생은 자동 재생(동영상이 기본적으로 재생됨)일 수도 있고, 클릭 재생(동영상 재생을 시작하기 위해 재생 버튼을 눌러야 함)일 수도 있습니다.<hr><h2>노출당 비용 vs 조회당 비용</h2><br><strong>노출당 비용</strong>(CPM)은 1,000회 노출당 평균 비용입니다. 광고가 처음으로 사용자의 화면에서 조회 가능한 영역에 나타난 횟수를 집계합니다. 예를 들어 어떤 사람이 하루에 2번 광고를 보았다면 2회 노출로 집계됩니다. 누군가가 광고를 보고 아래로 스크롤한 다음 다시 위로 스크롤하여 동일한 광고를 본 경우에는 1회 노출로 집계됩니다.<br><br>광고 캠페인의 총 지출 금액을 노출수로 나눈 값에 1,000을 곱하여 계산합니다. 예: 50달러를 지출하고 10,000회의 노출이 발생했다면 CPM은 5달러입니다.<br><br><strong>조회당 비용</strong>(CPV)은 동영상 조회당 평균 비용입니다. Facebook은 동영상 10초 이상 조회당 비용과 동영상 3초 이상 조회당 비용을 보고합니다.<br><br><ul><li>동영상 10초 이상 조회당 비용은 총 지출 금액을 10초 이상 동영상 조회수로 나누어서 계산합니다.</li><li>동영상 3초 이상 조회당 비용은 총 지출 금액을 3초 이상 동영상 조회수로 나누어서 계산합니다.</li></ul>",
      "instruction":"",
      "_pageLevelProgress": {
          "_isEnabled": true
      }
  },
  {
      "_id":"c-595",
      "_parentId":"b-575",
      "_type":"component",
      "_component":"text",
      "_classes":"",
      "_layout":"full",
      "title":"오해 바로잡기",
      "displayTitle":"오해 바로잡기",
      "body":"<h2>오해 1: '동영상 재생'과 '동영상 노출' 간에는 차이가 없다.</h2><br>올바른 설명: '동영상 재생'과 '동영상 노출'은 서로 다릅니다. <strong>노출</strong>은 광고가 데스크톱 브라우저 또는 모바일 앱 화면에 나타나는 순간과 관련이 있습니다. 이와 반대로, <strong>재생</strong>(자동 재생 또는 클릭 재생)은 Facebook 또는 Instagram에서 동영상이 재생되기 시작하는 순간과 관련이 있습니다.<hr><h2>오해 2: 동영상 화면 비율은 선택한 목표에 따라 결정된다.</h2><br>올바른 설명: 동영상 광고의 화면 비율은 선택하는 노출 위치와 형식에 따라 달라지고, 노출 위치와 형식은 선택하는 목표에 따라 달라집니다.<hr><h2>오해 3: 동영상 3초 이상 조회 지표는 동영상을 정확히 3초 조회한 횟수만 보고한다.</h2><br>올바른 설명: 동영상 3초 이상 조회 지표는 동영상이 최소 3초 이상 조회된 횟수를 측정합니다. 따라서 동영상 3초 이상 조회 지표에서 집계된 평균 조회 기간은 3초보다 훨씬 깁니다(평균 13~19초).",
      "instruction":"",
      "_pageLevelProgress": {
          "_isEnabled": true
      }
  },
  {
    "_id": "c-600",
    "_parentId": "b-580",
    "_type": "component",
    "_component": "co-jump",
    "_classes": "color-test",
    "_preLinkBody": "다음으로는 ",
    "_linkBody": "동영상 광고의 기본 사항 요약",
    "_postLinkBody": " 과정을 통해 지금까지 배운 내용을 정리해 보겠습니다.",
    "_link": "#/id/co-350",
    "_graphic": "adapt/css/assets/icon_nextPage.png",
    "_pageLevelProgress": {
        "_isEnabled": false
    }
  },
  {
      "_id":"c-610",
      "_parentId":"b-590",
      "_type":"component",
      "_component":"text",
      "_classes":"",
      "_layout":"full",
      "title":"",
      "displayTitle":"",
      "body":"지금까지 '동영상 광고의 기본 사항' 과정에서 많은 내용을 살펴보았습니다. 이제 다양한 동영상 관련 주제를 간략히 요약하여 살펴보겠습니다.",
      "instruction":"",
      "_pageLevelProgress": {
          "_isEnabled": false
      }
  },
  {
      "_id":"c-620",
      "_parentId":"b-600",
      "_type":"component",
      "_component":"text",
      "_classes":"",
      "_layout":"full",
      "title":"플랫폼, 노출 위치, 형식 사이의 관계",
      "displayTitle":"플랫폼, 노출 위치, 형식 사이의 관계",
      "body":"플랫폼, 노출 위치, 형식 사이의 차이점을 이해하면 목적에 맞는 캠페인을 만드는 데 아주 큰 도움이 됩니다.<br><br><ul><li><strong>플랫폼</strong>은 동영상 광고가 노출되는 앱 또는 서비스로, <strong>Facebook, Instagram</strong>, <strong>Audience Network</strong>를 예로 들 수 있습니다.</li><li>노출 위치는 동영상 광고가 플랫폼 내에서 나타나는 위치를 뜻합니다. <strong>Instagram 피드</strong>에 동영상 광고를 노출하려는 경우를 살펴보겠습니다. <strong>Instagram</strong>은 '플랫폼'이고 <strong>피드</strong>는 플랫폼 내 '노출 위치'입니다.<i></i><i></i><li>'형식'은 동영상 광고가 취하는 크리에이티브 양식입니다. 간단하게 말해서, 동영상 광고가 나타나는 형태라고 할 수 있습니다. <strong>단일 동영상</strong>, <strong>슬라이드</strong>, <strong>슬라이드쇼</strong>, <strong>컬렉션</strong>을 예로 들 수 있습니다.</li></ul>",
      "instruction":"",
      "_pageLevelProgress": {
          "_isEnabled": true
      }
  },
  {
      "_id":"c-630",
      "_parentId":"b-610",
      "_type":"component",
      "_component":"text",
      "_classes":"",
      "_layout":"full",
      "title":"동영상 자산의 사양 및 상세 정보",
      "displayTitle":"동영상 자산의 사양 및 상세 정보",
      "body":"이 섹션에는 다음에 대한 정보가 포함되어 있습니다.<br><br><ul><li>동영상 자산 <strong>유형</strong><ul><li>MP4, MOV</li></ul></li><li>동영상 파일의 권장 <strong>길이</strong><ul><li>동영상 광고의 길이는 15초를 넘지 않아야 합니다.</li></ul></li><li><strong>화면 비율</strong><ul><li>화면의 가로 길이와 세로 길이의 비율</li><li>Facebook과 Instagram을 기준으로 동영상 캠페인의 노출 위치를 최적화하려면 4:5 화면 비율로 동영상을 제작하는 것이 좋습니다.</li></ul></li><li><strong>동영상 화면 비율</strong>에 대한 권장 사항</li><li><strong>소리 켜기/소리 끄기</strong> 환경에 대한 고려 사항</li></ul>",
      "instruction":"",
      "_pageLevelProgress": {
          "_isEnabled": true
      }
  },
  {
      "_id":"c-640",
      "_parentId":"b-620",
      "_type":"component",
      "_component":"text",
      "_classes":"",
      "_layout":"full",
      "title":"지표",
      "displayTitle":"지표",
      "body":"이제 여러분은 동영상 조회수, 동영상 조회 기간, 동영상 광고에 대한 지출 금액 등을 이해할 수 있습니다. 지표는 Facebook, Instagram, Audience Network에 게재된 동영상 광고의 효과를 측정합니다.<br><br>이제 여러분은 다음을 측정할 수 있습니다.<br><br><ul><li>동영상 평균 조회수</li><li>동영상 조회당 비용</li><li>페이지 인사이트 동영상 조회</li><li>도달</li><li>소리 지표</li></ul>",
      "instruction":"",
      "_pageLevelProgress": {
          "_isEnabled": true
      }
  },
  {
    "_id": "c-650",
    "_parentId": "b-630",
    "_type": "component",
    "_component": "co-jump",
    "_classes": "color-test",
    "_preLinkBody": "그럼 이제까지 배운 내용을 ",
    "_linkBody": "학습 내용 확인",
    "_postLinkBody": " 과정에서 되짚어보겠습니다.",
    "_link": "#/id/co-400",
    "_graphic": "adapt/css/assets/icon_nextPage.png",
    "_pageLevelProgress": {
        "_isEnabled": false
    }
  },
  {
      "_id":"c-660",
      "_parentId":"b-640",
      "_type":"component",
      "_component":"mcq",
      "_setCompletionOn":"inview",
      "_classes":"",
      "_layout":"full",
      "_attempts":1,
      "_shouldDisplayAttempts": false,
      "_questionWeight":1,
      "_isRandom":false,
      "_selectable":2,
      "title": "문제 1/5",
      "displayTitle": "문제 1/5",
      "body": "다음 중 '플랫폼'에 해당하는 것은 무엇인가요? (2개 선택)",
      "instruction": "",
      "_items": [
          {
            "text": "Audience Network",
            "_shouldBeSelected":true
          },
          {
            "text": "Instagram",
            "_shouldBeSelected":true
          },
          {
            "text": "인스트림 동영상",
            "_shouldBeSelected":false
          },
          {
             "text": "오른쪽 칼럼",
            "_shouldBeSelected":false
          }
      ],
      "_feedback":{
          "correct":"정답입니다. Audience Network와 Instagram은 둘 다 Facebook 플랫폼입니다.",
          "_incorrect": {
            "notFinal": "",
            "final": "정답이 아닙니다. Audience Network와 Instagram은 둘 다 Facebook 플랫폼입니다."
          },
          "_partlyCorrect": {
            "notFinal": "",
            "final": ""
          }
      },
      "_buttons": {
      "_submit": {
        "buttonText": "제출",
        "ariaLabel": "답변을 제출하려면 여기를 선택하세요."
      },
      "_reset": {
        "buttonText": "초기화",
        "ariaLabel": ""
      },
      "_showCorrectAnswer": {
        "buttonText": "정답",
        "ariaLabel": ""
      },
      "_hideCorrectAnswer": {
        "buttonText": "내 답변",
        "ariaLabel": ""
      },
      "_showFeedback": {
        "buttonText": "피드백 보기",
        "ariaLabel": ""
      },
          "remainingAttemptsText": "회 남음",
          "remainingAttemptText": "마지막 시도"
      },
      "_pageLevelProgress": {
          "_isEnabled": true
      }
  },
  {
      "_id":"c-670",
      "_parentId":"b-650",
      "_type":"component",
      "_component":"mcq",
      "_setCompletionOn":"inview",
      "_classes":"",
      "_layout":"full",
      "_attempts":1,
      "_shouldDisplayAttempts": false,
      "_questionWeight":1,
      "_isRandom":false,
      "_selectable":1,
      "title": "문제 2/5",
      "displayTitle": "문제 2/5",
      "body": "다음 중 일정 시간이 지나면 사라지는 형식은 무엇인가요?",
      "instruction": "",
      "_items": [
          {
            "text": "캔버스",
            "_shouldBeSelected":false
          },
          {
            "text": "Instagram Stories",
            "_shouldBeSelected":true
          },
          {
             "text": "인스트림 동영상",
            "_shouldBeSelected":false
          },
          {
            "text": "슬라이드쇼",
            "_shouldBeSelected":false
          }
      ],
      "_feedback":{
          "correct":"정답입니다. Instagram Stories 콘텐츠는 일정 시간이 지나면 사라집니다.",
          "_incorrect": {
            "notFinal": "",
            "final": "정답이 아닙니다. Instagram Stories 콘텐츠는 일정 시간이 지나면 사라집니다."
          },
          "_partlyCorrect": {
            "notFinal": "",
            "final": ""
          }
      },
      "_buttons": {
      "_submit": {
        "buttonText": "제출",
        "ariaLabel": "답변을 제출하려면 여기를 선택하세요."
      },
      "_reset": {
        "buttonText": "초기화",
        "ariaLabel": ""
      },
      "_showCorrectAnswer": {
        "buttonText": "정답",
        "ariaLabel": ""
      },
      "_hideCorrectAnswer": {
        "buttonText": "내 답변",
        "ariaLabel": ""
      },
      "_showFeedback": {
        "buttonText": "피드백 보기",
        "ariaLabel": ""
      },
          "remainingAttemptsText": "회 남음",
          "remainingAttemptText": "마지막 시도"
      },
      "_pageLevelProgress": {
          "_isEnabled": true
      }
  },
  {
      "_id":"c-680",
      "_parentId":"b-660",
      "_type":"component",
      "_component":"mcq",
      "_setCompletionOn":"inview",
      "_classes":"",
      "_layout":"full",
      "_attempts":1,
      "_shouldDisplayAttempts": false,
      "_questionWeight":1,
      "_isRandom":false,
      "_selectable":1,
      "title": "문제 3/5",
      "displayTitle": "문제 3/5",
      "body": "노출과 재생의 차이점은 무엇인가요?",
      "instruction": "",
      "_items": [
          {
            "text": "'노출'은 광고의 첫 번째 픽셀이 사용자의 화면에 표시될 때 발생하고, '재생'은 동영상이 실제로 시작될 때 발생합니다.",
            "_shouldBeSelected":true
          },
          {
             "text": "'노출'은 동영상을 본 사람 수를 말하고, '재생'은 사용자가 동영상을 10초 이상 시청했을 때만 집계됩니다.",
            "_shouldBeSelected":false
          },
          {
            "text": "아무런 차이가 없습니다. 둘 다 사용자의 모바일 기기에 동영상이 표시되는 횟수를 집계합니다.",
            "_shouldBeSelected":false
          },
          {
            "text": "'노출'은 광고의 세 개 이상의 픽셀이 사용자의 데스크톱 또는 모바일 기기에 나타날 때 집계되고, '재생'은 동영상이 조회되거나 공유되었을 때 집계됩니다.",
            "_shouldBeSelected":false
          }
      ],
      "_feedback":{
          "correct":"정답입니다. '노출'은 광고의 첫 번째 픽셀이 사용자의 화면에 표시될 때 발생하고, '재생'은 동영상이 실제로 시작될 때 발생합니다.",
          "_incorrect": {
            "notFinal": "",
            "final": "정답이 아닙니다. '노출'은 광고의 첫 번째 픽셀이 사용자의 화면에 표시될 때 발생하고, '재생'은 동영상이 실제로 시작될 때 발생합니다."
          },
          "_partlyCorrect": {
            "notFinal": "",
            "final": ""
          }
      },
      "_buttons": {
      "_submit": {
        "buttonText": "제출",
        "ariaLabel": "답변을 제출하려면 여기를 선택하세요."
      },
      "_reset": {
        "buttonText": "초기화",
        "ariaLabel": ""
      },
      "_showCorrectAnswer": {
        "buttonText": "정답",
        "ariaLabel": ""
      },
      "_hideCorrectAnswer": {
        "buttonText": "내 답변",
        "ariaLabel": ""
      },
      "_showFeedback": {
        "buttonText": "피드백 보기",
        "ariaLabel": ""
      },
          "remainingAttemptsText": "회 남음",
          "remainingAttemptText": "마지막 시도"
      },
      "_pageLevelProgress": {
          "_isEnabled": true
      }
  },
  {
      "_id":"c-690",
      "_parentId":"b-670",
      "_type":"component",
      "_component":"mcq",
      "_setCompletionOn":"inview",
      "_classes":"",
      "_layout":"full",
      "_attempts":1,
      "_shouldDisplayAttempts": false,
      "_questionWeight":1,
      "_isRandom":false,
      "_selectable":1,
      "title": "문제 4/5",
      "displayTitle": "문제 4/5",
      "body": "다음 중 인스트림 동영상을 통해 할 수 있는 것은 무엇인가요?",
      "instruction": "",
      "_items": [
          {
            "text": "Facebook 플랫폼에 30초 광고 게재",
            "_shouldBeSelected":false
          },
          {
             "text": "Facebook의 동영상 내에 5~15초 광고 게재",
            "_shouldBeSelected":true
          },
          {
            "text": "각 동영상에 동일한 광고 게재",
            "_shouldBeSelected":false
          },
          {
            "text": "컬렉션에 5~15초 광고 게재",
            "_shouldBeSelected":false
          }
      ],
      "_feedback":{
          "correct":"정답입니다. 인스트림 동영상을 이용하면 Facebook의 동영상 내에 5~15초 길이의 광고를 게재할 수 있습니다.",
          "_incorrect": {
            "notFinal": "",
            "final": "정답이 아닙니다. 인스트림 동영상을 이용하면 Facebook의 동영상 내에 5~15초 길이의 광고를 게재할 수 있습니다."
          },
          "_partlyCorrect": {
            "notFinal": "",
            "final": ""
          }
      },
      "_buttons": {
      "_submit": {
        "buttonText": "제출",
        "ariaLabel": "답변을 제출하려면 여기를 선택하세요."
      },
      "_reset": {
        "buttonText": "초기화",
        "ariaLabel": ""
      },
      "_showCorrectAnswer": {
        "buttonText": "정답",
        "ariaLabel": ""
      },
      "_hideCorrectAnswer": {
        "buttonText": "내 답변",
        "ariaLabel": ""
      },
      "_showFeedback": {
        "buttonText": "피드백 보기",
        "ariaLabel": ""
      },
          "remainingAttemptsText": "회 남음",
          "remainingAttemptText": "마지막 시도"
      },
      "_pageLevelProgress": {
          "_isEnabled": true
      }
  },
  {
      "_id":"c-700",
      "_parentId":"b-680",
      "_type":"component",
      "_component":"mcq",
      "_setCompletionOn":"inview",
      "_classes":"",
      "_layout":"full",
      "_attempts":1,
      "_shouldDisplayAttempts": false,
      "_questionWeight":1,
      "_isRandom":false,
      "_selectable":2,
      "title": "문제 5/5",
      "displayTitle": "문제 5/5",
      "body": "다음 중 업로드 시 권장되는 파일 형식 두 가지는 무엇인가요? (2개 선택)",
      "instruction": "",
      "_items": [
          {
            "text": "AVI",
            "_shouldBeSelected":false
          },
          {
            "text": "GIF",
            "_shouldBeSelected":false
          },
          {
            "text": "JPEG",
            "_shouldBeSelected":false
          },
          {
            "text": "MOV",
            "_shouldBeSelected":true
          },
          {
             "text": "MP4",
            "_shouldBeSelected":true
          }
      ],
      "_feedback":{
          "correct":"정답입니다. 업로드 시 권장되는 파일 형식 두 가지는 MP4와 MOV입니다.",
          "_incorrect": {
            "notFinal": "",
            "final": "정답이 아닙니다. 업로드 시 권장되는 파일 형식 두 가지는 MP4와 MOV입니다."
          },
          "_partlyCorrect": {
            "notFinal": "",
            "final": "업로드 시 권장되는 파일 형식 두 가지는 MP4와 MOV입니다."
          }
      },
      "_buttons": {
      "_submit": {
        "buttonText": "제출",
        "ariaLabel": "답변을 제출하려면 여기를 선택하세요."
      },
      "_reset": {
        "buttonText": "초기화",
        "ariaLabel": ""
      },
      "_showCorrectAnswer": {
        "buttonText": "정답",
        "ariaLabel": ""
      },
      "_hideCorrectAnswer": {
        "buttonText": "내 답변",
        "ariaLabel": ""
      },
      "_showFeedback": {
        "buttonText": "피드백 보기",
        "ariaLabel": ""
      },
          "remainingAttemptsText": "회 남음",
          "remainingAttemptText": "마지막 시도"
      },
      "_pageLevelProgress": {
          "_isEnabled": true
      }
  },
  {
      "_id": "c-710",
      "_parentId": "b-690",
      "_type":"component",
      "_component":"co-jump",
      "_classes":"color-test",
      "_autoComplete":true,
      "_preLinkBody":"이 과정을 마치려면 아래 버튼을 클릭하세요. 세부 과정을 모두 학습했는지 확인하려면 <a href='#'>여기를 클릭</a>하세요.<br>",
      "_linkBody":"<div style = 'text-align:center;padding:8px;'><button class='buttons-action'><b>과정 완료</b></button></div><br> ",
      "_postLinkBody":"",
      "_link":"",
      "_pageLevelProgress": {
          "_isEnabled": false
      }
  }

]
